{
  "version": "v4",
  "repo": "borisyankov/DefinitelyTyped",
  "ref": "master",
  "path": "typings",
  "bundle": "typings/tsd.d.ts",
  "installed": {
    "jquery/jquery.d.ts": {
      "commit": "73d930c20483b888578a5a81f691a8897d0be216"
    },
    "angularjs/angular.d.ts": {
      "commit": "73d930c20483b888578a5a81f691a8897d0be216"
    },
    "angularjs/angular-route.d.ts": {
      "commit": "db679a7b3e2c7552918b29f0d69a07d4e3cb8e4e"
    }
  }
}